%YAML 1.1
%TAG !u! tag:unity3d.com,2011:
--- !u!114 &11400000
MonoBehaviour:
  m_ObjectHideFlags: 0
  m_PrefabParentObject: {fileID: 0}
  m_PrefabInternal: {fileID: 0}
  m_GameObject: {fileID: 0}
  m_Enabled: 1
  m_EditorHideFlags: 0
  m_Script: {fileID: 11500000, guid: ca7afe1857f00f84cbeccbafd480259e, type: 3}
  m_Name: Bubble 2
  m_EditorClassIdentifier: 
  properties:
    clip: {fileID: 8300000, guid: c8e29e424fe100646bbd8953097f185c, type: 3}
    maxDistance: 100
    minDistance: 0
    volume: 1
    pitch: 1
    audioGroup: {fileID: 24327030, guid: 9ee05d31eef8c0c4eb70e1df1d56e0c1, type: 2}
